Statement;Link;Date;Topics;People;Organisations;Region;Industry Sector
Majority of Brits won’t take plant-based plunge;https://www.newfoodmagazine.com/news/130876/plant-based-survey/;30 December 2020;Food & Drink;By Joshua Minchin (New Food);British Nutrition Foundation (BNF), YouGov;UK & Ireland;Meat & pultry
Poultry to be culled in Northern Ireland after bird flu is detected;https://www.newfoodmagazine.com/news/131260/bird-flu-northern-ireland/;30 December 2020;Poultry;By Joshua Minchin (New Food);Department of Agriculture, Environment, and Rural Affairs in Northern Ireland ;UK & Ireland;Meat & pultry
I’ll take my musels with a side of microplastic ;https://www.newfoodmagazine.com/news/130828/mussels-microplastic/;18 December 2020;Seafood;By Joshua Minchin (New Food);University of Bayreuth;;Fish & Seafood
BMPA predicts Brexit chaos without ‘orientation phase’;https://www.newfoodmagazine.com/news/130665/bmpa-brexit/;17 December 2020;Meat;By Joshua Minchin (New Food);British Meat Processors Association (BMPA), Department for Environment Food and Rural Affairs (Defra);UK & Ireland;Meat & pultry
No one-size-fits-all approach when it comes to eating less meat;https://www.newfoodmagazine.com/news/130706/eating-less-meat/;17 December 2020;Meat;By Joshua Minchin (New Food);Center for Tropical Agriculture (CIAT), International Livestock Research Institute (ILRI), Karlsruhe Institute of Technology;Africa, Europe, North America, UK & Ireland;Meat & pultry
Recall Roundup: Salmonella , undeclared allergens and contaminants…;https://www.newfoodmagazine.com/news/130498/recall-roundup-16-12-20/;16 December 2020;Allergens, Contamination;By Joshua Minchin (New Food);Canadian Food Inspection Agency (CFIA), Federal Office for Consumer Protection and Food Safety (BVL), Food & Drug Administration (FDA), Food Standards Agency (FSA), George DeLallo Co, Hilly Acres Farm, Kikkoman's, Lakeland, Picard, Shivani;Europe, North America, UK & Ireland;Food Safety
“No plans” to change UK bread regulations;https://www.newfoodmagazine.com/news/130403/bread-regulations/;16 December 2020;Baking;By Joshua Minchin (New Food);Department for Environment Food and Rural Affairs (Defra), Sustain;UK & Ireland;Baking
A daily avocado keeps your gut microbes happy;https://www.newfoodmagazine.com/news/130233/avocado-fibre/;15 December 2020;Food & Drink;By Joshua Minchin (New Food);Journal of Nutrition, University of Illinois;North America;Farming
How safe are non-chilled deliveries?;https://www.newfoodmagazine.com/news/130236/how-safe-are-non-chilled-deliveries/;15 December 2020;Food & Drink;By Bethan Grylls (New Food);Campden BRI;UK & Ireland;Fish & Seafood, Meat & Poultry
FDA approves genetically modified pigs for human consumption;https://www.newfoodmagazine.com/news/130201/fda-gmo-pigs/;15 December 2020;Food & Drink;By Joshua Minchin (New Food);Food & Drug Administration (FDA), Revivicor;North America;Meat & pultry
Could urine be the key to producing food in space?;https://www.newfoodmagazine.com/news/130188/urine-fertiliser/;15 December 2020;Food & Drink;By Joshua Minchin (New Food);ORC Manufacturing Co, Tokyo University of Science;Asia Pacific & Oceania;Agriculture & Fresh Produce
I’ll take my musseli with a side of microplastic ;https://www.newfoodmagazine.com/news/130828/mussels-microplastic/;18 December 2020;Seafood;By Joshua Minchin (New Food);University of Bayreuth;;Fish & Seafood
Recall Roundup: Salmonella , undeclared allergens and contaminants…;https://www.newfoodmagazine.com/news/130498/recall-roundup-16-12-20/;16 December 2020;Allergens, Contamination;By Joshua Minchin (New Food);Canadian Food Inspection Agency (CFIA), Federal Office for Consumer Protection and Food Safety (BVL), Food & Drug Administration (FDA), Food Standards Agency (FSA), George DeLallo Co, Hilly Acres Farm, Kikkoman's, Lakeland, Picard, Shivani;Europe, North America, UK & Ireland;Food Safety
A daily avocado keeps your gut microbes happy;https://www.newfoodmagazine.com/news/130233/avocado-fibre/;15 December 2020;Food & Drink;By Joshua Minchin (New Food);Journal of Nutrition, University of Illinois;North America;Farming
I’ve taken my mussels with a side of microplastic ;https://www.newfoodmagazine.com/news/130828/mussels-microplastic/;18 December 2020;Seafood;By Joshua Minchin (New Food);University of Bayreuth;;Fish & Seafood
Why do bell peppers change colour?;https://www.newfoodmagazine.com/news/130183/bell-peppers/;15 December 2020;Food & Drink;By Joshua Minchin (New Food);Ruhr University Bochum;Europe, North America, UK & Ireland;Agriculture & Fresh Produce
I’ll takee my mussellie with a side of microplastic ;https://www.newfoodmagazine.com/news/130828/mussels-microplastic/;18 December 2020;Seafood;By Joshua Minchin (New Food);University of Bayreuth;;Fish & Seafood
The dark side of technology in the food industry;https://www.newfoodmagazine.com/news/130061/food-industry-technology/;15 December 2020;Food & Drink;By Joshua Minchin (New Food);Alliance of Bioversity International and the International Center for Tropical Agriculture (CIAT)., The Lancet Planetary Health;Central and South America;Environment
Enzyme is key to unlocking carrot’s super power;https://www.newfoodmagazine.com/news/129951/carrots-enzyme/;14 December 2020;Carotenoids, Health & Nutrition, ;By Joshua Minchin (New Food);University of Illinois;North America;Agriculture & Fresh Produce
Salmonella ruled a contributing factor in two deaths;https://www.newfoodmagazine.com/news/129943/salmonella-deaths/;14 December 2020;Contaminants, Food Safety, Hygiene, Outbreaks & product recalls, Pathogens,;By Joshua Minchin (New Food);BBC, Chapman and Sons, Teesside Coroner's Court, The Chronicle;UK & Ireland;Food Safety
Children’s health before profits;https://www.newfoodmagazine.com/news/129850/unhealthy-advertising/;11 December 2020;Health & Nutrition;By Joshua Minchin (New Food);American Journal of Preventive Medicine, Dartmouth College, General Mills, Kellogg's, Kraft Heinz, McDonald's, United States Department of Agriculture (USDA);North America;Confectionery & Chocolate, Snacks
Nestlé launches plant-based meat line in China;https://www.newfoodmagazine.com/news/129856/nestle-china-plant-based-meat/;11 December 2020;Analysis, COVID-19, Food & Drink, Free From, Health & Nutrition,;By Joshua Minchin (New Food);BBC, Beyond Meat, Nestlé, Zhenmeat;Central and South Asia;Meat & pultry
Children’s health before profits;https://www.newfoodmagazine.com/news/129850/unhealthy-advertising/;11 December 2020;Health & Nutrition;By Joshua Minchin (New Food);American Journal of Preventive Medicine, Dartmouth College, General Mills, Kellogg's, Kraft Heinz, McDonald's, United States Department of Agriculture (USDA);North America;Confectionery & Chocolate, Snacks
Could the African Yam Bean help solve hunger issues in Africa?;https://www.newfoodmagazine.com/news/129834/african-yam-bean/;11 December 2020;Food & Drink, Health & Nutrition, Proteins & alternative proteins, Research & development, Water;By Joshua Minchin (New Food);EIT Food, WE Lead;Africa ;Agriculture & Fresh Produce
Could sous vide cookng make meat easier to digest?;https://www.newfoodmagazine.com/news/129798/sous-vide/;10 December 2020;Food & Drink, Health & Nutrition, Research & development;By Joshua Minchin (New Food);American Chemical Society (ACS), Journal of Agricultural and Food Chemistry;North America;Meat & pultry
British Nutrition Foundation survey reveals empty shelf concerns;https://www.newfoodmagazine.com/news/129720/bnf-survey/;10 December 2020;Food & Drink, Free From, Health & Nutrition, Obesity, Plant based, retail, Supermarket, Supply chain, Sustainability, The consumer;By Joshua Minchin (New Food);British Nutrition Foundation (BNF), YouGov;UK & Ireland;Fish & Seafood, Meat & Poultry
FSA revises vacuum packed meat shelf-life;https://www.newfoodmagazine.com/news/129675/fsa-meat-shelf-life/;10 December 2020;Food Safety, Microbiology, Outbreaks & product recalls, Packaging & Labelling, Pathogens, Regulation & Legislation, retail, Shelf life, Supermarket, Supply chain;By Joshua Minchin (New Food);British Meat Processors Association (BMPA), Food Standards Agency (FSA), Food Standards Scotland (FSS);UK & Ireland;Meat & pultry
Recall Roundup: Listeria, undeclared allergens and foreign objects…;https://www.newfoodmagazine.com/news/129607/recall-roundup-9-december/;09 December 2020;Allergens, Contaminants, Cultured Meat, Food & Drink, Food Safety, Free From, Labelling, Microbiology, Outbreaks & product recalls, Packaging & Labelling, Pathogens, recalls, Regulation & Legislation, retail, Supermarket, The consumer;By Joshua Minchin (New Food);Canadian Food Inspection Agency (CFIA), Ding Ho Foods, Federal Office for Consumer Protection and Food Safety (BVL), Flowers Foods Inc, Food & Drug Administration (FDA), Food Standards Agency (FSA), Lidl, Market of Choice, Meng Fu;Europe, North America, UK & Ireland;Food Safety
European factory aims to make plant-based more accessible;https://www.newfoodmagazine.com/news/129576/plant-and-bean/;09 December 2020;Economy, Food & Drink, Free From, Ingredients, Packaging & Labelling, Plant based, Proteins & alternative proteins, retail, Supermarket, Supply chain, The consumer;By Joshua Minchin (New Food);Plant & Bean;Europe, UK & Ireland;Plant & Bean
Potential appointment of Tom Vilsack divides food and drink industry;https://www.newfoodmagazine.com/news/129563/tom-vilsack-appointment/;09 December 2020;Analysis, COVID-19, Food & Drink, Health & Nutrition, Recruitment & workforce, Regulation & Legislation, Supply chain;By Joshua Minchin (New Food);Center for Food Safety (CFS), Food and Water Watch, The United State Department of Agriculture (USDA);North America;Agriculture & Fresh Produce
Trade associations plead for more vets to save UK food trade after Brexit;https://www.newfoodmagazine.com/news/129509/george-eustice-letter/;09 December 2020;Brexit, Economy, Food & Drink, Food Safety, Food Security, Regulation & Legislation, retail, Supply chain;By Joshua Minchin (New Food);Department for Environment Food and Rural Affairs (Defra), European Union, The Cold Chain Federation;Europe, UK & Ireland;Fish & Seafood, Meat & Poultry
Verifying organic produce;https://www.newfoodmagazine.com/news/129494/organic/;09 December 2020;Analysis, Contaminants, Food & Drink, Food Fraud, Mycotoxins;By Bethan Grylls (New Food);ABP, Cambridge University, Colruyt, EIT Food, Institute for Global Food Security, Queen's University Belfast, Siemens, University of Honenheim, University of Turin;Europe, UK & Ireland;Agriculture & Fresh Produce
Study into disease-resistant gene could help tackle food insecurity;https://www.newfoodmagazine.com/news/129406/food-security-4/;09 December 2020;Food Waste, Pathogens;By Bethan Grylls (New Food);John Innes Center, MPMI Journal;Europe, North America, UK & Ireland;Agriculture & Fresh Produce
Pig guts fly as brawl over US meat imports erupts in Taiwanese parliament;https://www.newfoodmagazine.com/news/129401/taiwan-palriament-brawl/;09 December 2020;Food Waste, Food & Drink, Food Safety, Food Waste, Regulation & Legislation, Supply chain;By Joshua Minchin (New Food);BBC, Democratic Progression Party, Kuomingtang, The Guardian;Central and South Asia;Meat & pultry
Verifying organic produce;https://www.newfoodmagazine.com/news/129494/organic/;09 December 2020;Analysis, Contaminants, Food & Drink, Food Fraud, Mycotoxins;By Bethan Grylls (New Food);ABP, Cambridge University, Colruyt, EIT Food, Institute for Global Food Security, Queen's University Belfast, Siemens, University of Honenheim, University of Turin;Europe, UK & Ireland;Agriculture & Fresh Produce
Cannabis reforms offer hope to CBD manufacturers around the world;https://www.newfoodmagazine.com/news/129312/cbd-reforms/;07 December 2020;Analysis, CBD hemp & cannabis, Food & Drink, Regulation & Legislation, retail;By Joshua Minchin (New Food);European Commision, Flawless CBD, The Association for the Cannabinoid Industry (ACI), The European Court of Justice, The Real Cannabis Club, United Nations Commission on narcotic Drugs;Europe, North America, UK & Ireland;Agriculture & Fresh Produce
Kent factory workers to get full sick pay after COVID-19 deaths;https://www.newfoodmagazine.com/news/129290/kent-factory-workers/;07 December 2020;COVID-19, Hygiene, Recruitment & workforce, Supply chain;By Joshua Minchin (New Food);Bakkavor Salads Tilmanstone, GMB Union, Marks & Spencer, Public Health England (PHE);UK & Ireland;Environment
FSA Chief issues rallying call to food industry to change;https://www.newfoodmagazine.com/news/129276/fsa-talks-sustainability/;07 December 2020;COVID-19, Hygiene, Recruitment & workforce, Supply chain;By Joshua Minchin (New Food);Food Standards Agency (FSA), UK Government;UK & Ireland;Food Safety
No-Deal Brexit will drive up fruit and vegetable prices, says new analysis;https://www.newfoodmagazine.com/news/129218/no-deal-brexit/;04 December 2020;Brexit, Economy, Food & Drink, Health & Nutrition, Ingredients, Obesity, Regulation & Legislation, retail, Supermarket, Supply chain, Sustainability, The consumer;By Joshua Minchin (New Food);Sustainable Health and Food Systems (SHEFS), The Food Foundation;Europe, UK & Ireland;Agriculture & Fresh Produce
Wahaca brings its menu to life with AR technology;https://www.newfoodmagazine.com/news/129200/wahaca-menu/;04 December 2020;Food & Drink, Free From, Health & Nutrition, Obesity, Plant based, retail, Supermarket, Supply chain, Sustainability, The consumer;By Joshua Minchin (New Food);Poplar Studios, Wahaca;UK & Ireland;Agriculture & Fresh Produce
Scientists develop ‘ink’ to produce food via 3D printing;https://www.newfoodmagazine.com/news/129157/3-d-printing-ink/;04 December 2020;Food & Drink, Health & Nutrition, Proteins & alternative proteins, Research & development, Water;By Joshua Minchin (New Food);Food and Environment (INRAE), Food Science and Engineering (Oniris), Nantes Atlantic College of Veterinary Medicine, National Institute for Research on Agriculture, São Paulo's Luiz de Queiroz College of Agriculture (ESALQ-USP);Central and South America, Europe;Environment
Think tank says global panel is needed to hit UN’s sustainability goals;https://www.newfoodmagazine.com/news/129058/intergovernmental-panel/;04 December 2020;Food & Drink, Free From, Health & Nutrition, Obesity, Plant based, retail, Supermarket, Supply chain, Sustainability, The consumer;By Joshua Minchin (New Food);Food Tank, The Barilla Foundation, The Intergovernmental Panel on Climate Change, The United Nations (UN);Africa, Asia Pacific & Oceania, Central and South America, Central and South Asia, Europe, Middle East, North America, UK & Ireland;Environment
The delicate nitrogen balance behind Californian almond production;https://www.newfoodmagazine.com/news/129011/almond-production/;04 December 2020;Food & Drink, Health & Nutrition, Proteins & alternative proteins, Research & development, Water;By Joshua Minchin (New Food);American Society of Agronomy, Soil Science Society America;North America;Environment
Could an apple a day keep heart disease away?;https://www.newfoodmagazine.com/news/128998/apples-pears/;04 December 2020;COVID-19, Food & Drink, Health & Nutrition, Obesity, The consumer;By Joshua Minchin (New Food);British Apples and Pears;UK & Ireland;Agriculture & Fresh Produce
Recall Roundup: Salmonella, Listeria, and foreign objects…;https://www.newfoodmagazine.com/news/128861/recall-roundup-2-dec/;02 December 2020;Allergens, Contaminants, Food & Drink, Food Safety, Free From, Labelling, Microbiology, Outbreaks & product recalls, Packaging & Labelling, Pathogens, recalls, retail;By Joshua Minchin (New Food);Canadian Food Inspection Agency (CFIA), Federal Office for Consumer Protection and Food Safety (BVL), Food and Drug Administration (FDA), Guba-Trade, Kawartha Dairy, Prairie Farms Dairy, Vegpro;Europe, North America, UK & Ireland;Food Safety
PepsiCo commits to 100 percent recycled plastic for its bottles in Europe;https://www.newfoodmagazine.com/news/128738/pepsico-recycled-plastic/;02 December 2020;Beverages, Food & Drink, Packaging & Labelling, retail, Sustainability;By Joshua Minchin (New Food);European Union, PepsiCo;Europe, UK & Ireland;Beverages
Tate & Lyle acquire stevia sweetener specialist Sweet Green Fields;https://www.newfoodmagazine.com/news/128748/tate-lyle-sgf/;02 December 2020;Beverages, Clean Label, Economy, Flavours & colours, Health & Nutrition, Ingredients, Obesity, Product Development, Sugar, Supply chain;By Joshua Minchin (New Food);Asia Pacific & Oceania, Europe, UK & Ireland;Sweet Green Fields, Tate & Lyle;Baking, Beverages, Cereals, Confectionery & Chocolate, Snacks
Singapore approves cultured meat in world first;https://www.newfoodmagazine.com/news/128721/singapore-approves-cultured-meat-in-world-first/;02 December 2020;Cultured Meat, Food & Drink, New product development (NPD), Plant based, Product Development, Regulation & Legislation, Research & development, Technology & Innovation;By Joshua Minchin (New Food);Eat Just, Singapore Food Agency (SFA);Asia Pacific & Oceania;Meat & pultry
Could trade deals scupper progress made in farm antibiotics?;https://www.newfoodmagazine.com/news/128651/farm-antibiotics-concerns/;01 December 2020;Brexit, Economy, Food & Drink, Food Safety, Food Security, Regulation & Legislation, retail, Supply chain;By Joshua Minchin (New Food);Alliance to Save our Antibiotics, The World Health Organization (WHO);Asia Pacific & Oceania, Europe, North America, UK & Ireland;Agriculture & Fresh Produce, Dairy, Meat & Poultry
Could green tea inhibit the SARS-CoV-2 virus?;https://www.newfoodmagazine.com/news/128635/sars-cov-2-enzyme/;01 December 2020;Beverages, Clean Label, Economy, Flavours & colours, Health & Nutrition, Ingredients, Obesity, Product Development, Sugar, Supply chain;By Joshua Minchin (New Food);North Carolina State University;North America;Beverages
What consumers want: Has Covid changed consumer habits for good?;https://www.newfoodmagazine.com/news/128623/consumer-habits/;01 December 2020;COVID-19, Food & Drink, Health & Nutrition, Obesity, The consumer;By Joshua Minchin (New Food);EIT Food, University of Aarhus;Europe, UK & Ireland;Agriculture & Fresh Produce, Dairy, Meat & Poultry